<?xml version="1.0" encoding="utf-8"?>
<!-- Generator: Adobe Illustrator 19.2.0, SVG Export Plug-In . SVG Version: 6.00 Build 0)  -->
<!DOCTYPE svg PUBLIC "-//W3C//DTD SVG 1.1//EN" "http://www.w3.org/Graphics/SVG/1.1/DTD/svg11.dtd">
<svg version="1.1" id="Ebene_1" xmlns="http://www.w3.org/2000/svg" xmlns:xlink="http://www.w3.org/1999/xlink" x="0px" y="0px"
	 viewBox="0 0 35.1 23.7" style="enable-background:new 0 0 35.1 23.7;" xml:space="preserve">
<style type="text/css">
	.st0{fill:#FFFFFF;}
</style>
<g>
	<path class="st0" d="M35,4.2C34.9,4,34.8,4,34.6,4L6.8,2.1L4.9,0.2C4.8,0.1,4.7,0,4.5,0h-4C0.2,0,0,0.2,0,0.5s0.2,0.5,0.5,0.5h3.7
		l1.8,1.8L9,15c0,0,0,0,0,0l1,4.3c0.1,0.2,0.3,0.4,0.5,0.4H32c0.3,0,0.5-0.2,0.5-0.5s-0.2-0.5-0.5-0.5H11l-0.8-3.3L32.7,13
		c0.2,0,0.4-0.2,0.5-0.4l1.9-8C35.1,4.5,35.1,4.3,35,4.2z"/>
	<circle class="st0" cx="12.5" cy="22.1" r="1.6"/>
	<circle class="st0" cx="30.4" cy="22.1" r="1.6"/>
</g>
</svg>
