<?xml version="1.0" encoding="utf-8"?>
<!-- Generator: Adobe Illustrator 19.2.1, SVG Export Plug-In . SVG Version: 6.00 Build 0)  -->
<!DOCTYPE svg PUBLIC "-//W3C//DTD SVG 1.1//EN" "http://www.w3.org/Graphics/SVG/1.1/DTD/svg11.dtd">
<svg version="1.1" id="Ebene_1" xmlns="http://www.w3.org/2000/svg" xmlns:xlink="http://www.w3.org/1999/xlink" x="0px" y="0px"
	 viewBox="0 0 75.2 75.2" style="enable-background:new 0 0 75.2 75.2;" xml:space="preserve">
<style type="text/css">
	.st0{fill:#FFFFFF;}
</style>
<path class="st0" d="M0,0v75.2h75.2V0H0z M26,46.6h-6.5c-0.4,0-0.7-0.2-0.8-0.4c-0.2-0.3-0.2-0.6,0-1L25.5,33c0,0,0,0,0,0l-4.4-7.6
	c-0.2-0.4-0.2-0.7,0-1c0.2-0.3,0.5-0.4,0.9-0.4h6.5c1,0,1.5,0.6,1.8,1.2c0,0,4.4,7.7,4.4,7.7c-0.3,0.5-7,12.3-7,12.3
	C27.4,45.9,26.9,46.6,26,46.6z M56.5,16.6L42.2,41.9c0,0,0,0,0,0l9.1,16.6c0.2,0.4,0.2,0.7,0,1c-0.2,0.3-0.5,0.4-0.9,0.4H44
	c-1,0-1.5-0.7-1.8-1.2c0,0-9.2-16.8-9.2-16.8c0.5-0.8,14.4-25.5,14.4-25.5c0.3-0.6,0.8-1.2,1.7-1.2h6.5c0.4,0,0.7,0.1,0.9,0.4
	C56.7,15.9,56.7,16.2,56.5,16.6z"/>
</svg>
