<?xml version="1.0" encoding="utf-8"?>
<!-- Generator: Adobe Illustrator 19.2.1, SVG Export Plug-In . SVG Version: 6.00 Build 0)  -->
<!DOCTYPE svg PUBLIC "-//W3C//DTD SVG 1.1//EN" "http://www.w3.org/Graphics/SVG/1.1/DTD/svg11.dtd">
<svg version="1.1" id="Ebene_1" xmlns="http://www.w3.org/2000/svg" xmlns:xlink="http://www.w3.org/1999/xlink" x="0px" y="0px"
	 viewBox="0 0 45.1 45.1" style="enable-background:new 0 0 45.1 45.1;" xml:space="preserve">
<style type="text/css">
	.st0{fill:#FFFFFF;}
	.st1{fill:#58585A;}
</style>
<g>
	<rect x="0.3" y="0.3" class="st0" width="44.6" height="44.6"/>
	<path class="st1" d="M45.1,45.1H0V0h45.1V45.1z M0.5,44.6h44.1V0.5H0.5V44.6z"/>
</g>
<g>
	<path class="st1" d="M22.5,30.5c-0.1,0-0.2-0.1-0.2-0.2V14.7c0-0.1,0.1-0.2,0.2-0.2s0.2,0.1,0.2,0.2v15.5
		C22.8,30.4,22.7,30.5,22.5,30.5z"/>
</g>
<g>
	<path class="st1" d="M34.5,22.8H10.6c-0.1,0-0.2-0.1-0.2-0.2s0.1-0.2,0.2-0.2h23.9c0.1,0,0.2,0.1,0.2,0.2S34.6,22.8,34.5,22.8z"/>
</g>
<g>
	<path class="st1" d="M34.6,30.8H10.5c-0.1,0-0.2-0.1-0.2-0.2V14.6c0-0.1,0.1-0.2,0.2-0.2h24.2c0.1,0,0.2,0.1,0.2,0.2v15.9
		C34.9,30.7,34.8,30.8,34.6,30.8z M10.7,30.3h23.7V14.8H10.7V30.3z"/>
</g>
<g>
	<path class="st1" d="M18,20.6h-4.9c-0.1,0-0.2-0.1-0.2-0.2v-3.2c0-0.1,0.1-0.2,0.2-0.2H18c0.1,0,0.2,0.1,0.2,0.2v3.2
		C18.3,20.4,18.2,20.6,18,20.6z M13.4,20.1h4.4v-2.7h-4.4V20.1z"/>
</g>
<g>
	<path class="st1" d="M32.3,18.9h-1.6c-0.1,0-0.2-0.1-0.2-0.2v-1.5c0-0.1,0.1-0.2,0.2-0.2h1.6c0.1,0,0.2,0.1,0.2,0.2v1.5
		C32.6,18.7,32.5,18.9,32.3,18.9z M31,18.4h1.1v-1H31V18.4z"/>
</g>
</svg>
